{
  "jsonapi": {
    "version": "1.0"
  },
  "meta": {
    "version": "0.1.0"
  },
  "data": {
    "type": "customer",
    "id": "1",
    "attributes": {
      "firstName": "Jon",
      "lastName": "Doe",
      "emailAddress": "jon.doe@example.com"
    }
  }
}
